-------------------------------------------------------------------------------
Test set: com.stefanini.desafiojavapl.DesafioJavaPlApplicationTests
-------------------------------------------------------------------------------
Tests run: 1, Failures: 0, Errors: 0, Skipped: 0, Time elapsed: 0.957 s - in com.stefanini.desafiojavapl.DesafioJavaPlApplicationTests
