/home/arturdgmr/Documents/workspace-spring-tool-suite-4-4.7.1.RELEASE/desafio-java-pl/src/main/java/com/stefanini/desafiojavapl/api/v1/controller/ObraController.java
/home/arturdgmr/Documents/workspace-spring-tool-suite-4-4.7.1.RELEASE/desafio-java-pl/src/main/java/com/stefanini/desafiojavapl/domain/repository/UsuarioRepository.java
/home/arturdgmr/Documents/workspace-spring-tool-suite-4-4.7.1.RELEASE/desafio-java-pl/src/main/java/com/stefanini/desafiojavapl/core/config/aws/AWSS3Service.java
/home/arturdgmr/Documents/workspace-spring-tool-suite-4-4.7.1.RELEASE/desafio-java-pl/src/main/java/com/stefanini/desafiojavapl/api/v1/model/AutorDTO.java
/home/arturdgmr/Documents/workspace-spring-tool-suite-4-4.7.1.RELEASE/desafio-java-pl/src/main/java/com/stefanini/desafiojavapl/core/validation/PaisOrigemValidator.java
/home/arturdgmr/Documents/workspace-spring-tool-suite-4-4.7.1.RELEASE/desafio-java-pl/src/main/java/com/stefanini/desafiojavapl/api/ApplicationControllerAdvice.java
/home/arturdgmr/Documents/workspace-spring-tool-suite-4-4.7.1.RELEASE/desafio-java-pl/src/main/java/com/stefanini/desafiojavapl/domain/exception/BusinessException.java
/home/arturdgmr/Documents/workspace-spring-tool-suite-4-4.7.1.RELEASE/desafio-java-pl/src/main/java/com/stefanini/desafiojavapl/domain/model/Autor.java
/home/arturdgmr/Documents/workspace-spring-tool-suite-4-4.7.1.RELEASE/desafio-java-pl/src/main/java/com/stefanini/desafiojavapl/core/validation/NaoNuloSeOutroCampoNaoTiverValorConstraint.java
/home/arturdgmr/Documents/workspace-spring-tool-suite-4-4.7.1.RELEASE/desafio-java-pl/src/main/java/com/stefanini/desafiojavapl/domain/service/impl/AutorServiceImpl.java
/home/arturdgmr/Documents/workspace-spring-tool-suite-4-4.7.1.RELEASE/desafio-java-pl/src/main/java/com/stefanini/desafiojavapl/core/validation/CpfValidator.java
/home/arturdgmr/Documents/workspace-spring-tool-suite-4-4.7.1.RELEASE/desafio-java-pl/src/main/java/com/stefanini/desafiojavapl/core/validation/NaoNuloSeOutroCampoNaoTiverValorValidator.java
/home/arturdgmr/Documents/workspace-spring-tool-suite-4-4.7.1.RELEASE/desafio-java-pl/src/main/java/com/stefanini/desafiojavapl/domain/service/impl/ObraServiceImpl.java
/home/arturdgmr/Documents/workspace-spring-tool-suite-4-4.7.1.RELEASE/desafio-java-pl/src/main/java/com/stefanini/desafiojavapl/domain/repository/ObraRepository.java
/home/arturdgmr/Documents/workspace-spring-tool-suite-4-4.7.1.RELEASE/desafio-java-pl/src/main/java/com/stefanini/desafiojavapl/api/v1/controller/TesteController.java
/home/arturdgmr/Documents/workspace-spring-tool-suite-4-4.7.1.RELEASE/desafio-java-pl/src/main/java/com/stefanini/desafiojavapl/domain/service/impl/FileUploadServiceImpl.java
/home/arturdgmr/Documents/workspace-spring-tool-suite-4-4.7.1.RELEASE/desafio-java-pl/src/main/java/com/stefanini/desafiojavapl/domain/repository/AutorRepository.java
/home/arturdgmr/Documents/workspace-spring-tool-suite-4-4.7.1.RELEASE/desafio-java-pl/src/main/java/com/stefanini/desafiojavapl/core/config/security/AutenticacaoService.java
/home/arturdgmr/Documents/workspace-spring-tool-suite-4-4.7.1.RELEASE/desafio-java-pl/src/main/java/com/stefanini/desafiojavapl/domain/model/Perfil.java
/home/arturdgmr/Documents/workspace-spring-tool-suite-4-4.7.1.RELEASE/desafio-java-pl/src/main/java/com/stefanini/desafiojavapl/core/config/aws/AWSS3ServiceImpl.java
/home/arturdgmr/Documents/workspace-spring-tool-suite-4-4.7.1.RELEASE/desafio-java-pl/src/main/java/com/stefanini/desafiojavapl/core/config/ModelMapperConfig.java
/home/arturdgmr/Documents/workspace-spring-tool-suite-4-4.7.1.RELEASE/desafio-java-pl/src/main/java/com/stefanini/desafiojavapl/api/exception/ApiErros.java
/home/arturdgmr/Documents/workspace-spring-tool-suite-4-4.7.1.RELEASE/desafio-java-pl/src/main/java/com/stefanini/desafiojavapl/api/v1/model/ObraDTO.java
/home/arturdgmr/Documents/workspace-spring-tool-suite-4-4.7.1.RELEASE/desafio-java-pl/src/main/java/com/stefanini/desafiojavapl/core/config/security/SecurityConfig.java
/home/arturdgmr/Documents/workspace-spring-tool-suite-4-4.7.1.RELEASE/desafio-java-pl/src/main/java/com/stefanini/desafiojavapl/domain/model/FileUpload.java
/home/arturdgmr/Documents/workspace-spring-tool-suite-4-4.7.1.RELEASE/desafio-java-pl/src/main/java/com/stefanini/desafiojavapl/core/config/security/WebConfig.java
/home/arturdgmr/Documents/workspace-spring-tool-suite-4-4.7.1.RELEASE/desafio-java-pl/src/main/java/com/stefanini/desafiojavapl/api/v1/controller/AutorController.java
/home/arturdgmr/Documents/workspace-spring-tool-suite-4-4.7.1.RELEASE/desafio-java-pl/src/main/java/com/stefanini/desafiojavapl/domain/service/FileUploadService.java
/home/arturdgmr/Documents/workspace-spring-tool-suite-4-4.7.1.RELEASE/desafio-java-pl/src/main/java/com/stefanini/desafiojavapl/core/config/aws/AmazomConfiguration.java
/home/arturdgmr/Documents/workspace-spring-tool-suite-4-4.7.1.RELEASE/desafio-java-pl/src/main/java/com/stefanini/desafiojavapl/domain/model/Sexo.java
/home/arturdgmr/Documents/workspace-spring-tool-suite-4-4.7.1.RELEASE/desafio-java-pl/src/main/java/com/stefanini/desafiojavapl/domain/service/Service.java
/home/arturdgmr/Documents/workspace-spring-tool-suite-4-4.7.1.RELEASE/desafio-java-pl/src/main/java/com/stefanini/desafiojavapl/domain/model/Obra.java
/home/arturdgmr/Documents/workspace-spring-tool-suite-4-4.7.1.RELEASE/desafio-java-pl/src/main/java/com/stefanini/desafiojavapl/core/validation/PaisOrigemConstraint.java
/home/arturdgmr/Documents/workspace-spring-tool-suite-4-4.7.1.RELEASE/desafio-java-pl/src/main/java/com/stefanini/desafiojavapl/core/validation/CpfConstraint.java
/home/arturdgmr/Documents/workspace-spring-tool-suite-4-4.7.1.RELEASE/desafio-java-pl/src/main/java/com/stefanini/desafiojavapl/api/v1/controller/FileUploadController.java
/home/arturdgmr/Documents/workspace-spring-tool-suite-4-4.7.1.RELEASE/desafio-java-pl/src/main/java/com/stefanini/desafiojavapl/domain/model/Usuario.java
/home/arturdgmr/Documents/workspace-spring-tool-suite-4-4.7.1.RELEASE/desafio-java-pl/src/main/java/com/stefanini/desafiojavapl/DesafioJavaPlApplication.java
